{
  "$schema": "https://schema.management.azure.com/schemas/2019-04-01/deploymentTemplate.json#",
  "contentVersion": "1.0.0.0",
  "parameters": {
    "certData": {
      "type": "string"
    },
    "webAppName": {
      "type": "string",
      "defaultValue": "cloudsecuritywebapp"
    },
    "proxyWebAppName": {
      "type": "string",
      "defaultValue": "proxycloudsecuritywebapp"
    },
    "location": {
      "type": "string",
      "defaultValue": "[resourceGroup().location]"
    }
  },
  "variables": {
    "storageAccount": {
      "storageAccountName": "stnetworkclsec",
      "storageAccountType": "Standard_LRS"
    },
    "webapp": {
      "alwaysOn": false,
      "sku": "Standard",
      "skuCode": "S1",
      "workerSize": "0",
      "workerSizeId": 0,
      "numberOfWorkers": "1",
      "currentStack": "dotnet",
      "netFrameworkVersion": "v4.0",
      "hostingPlanName": "[concat('plan-cs-', resourceGroup().name)]"
    },
    "proxy": {
      "alwaysOn": false,
      "sku": "Standard",
      "skuCode": "S1",
      "workerSize": "0",
      "workerSizeId": 0,
      "numberOfWorkers": "1",
      "currentStack": "dotnet",
      "netFrameworkVersion": "v4.0",
      "hostingPlanName": "[concat('plan-proxy-cs-', resourceGroup().name)]"
    },
    "database": {
      "sqlServerName": "server-cloudsecurity-test",
      "sqlAdministratorLogin": "securitytest",
      "sqlAdministratorLoginPassword": "wefkjnwef493490!elkgKJLFFJK",
      "databaseName": "db-cloudsecurity-test",
      "privateLink": {
        "privateEndpointName": "pv-endpoint-security-test",
        "privateDnsZoneName": "[concat('privatelink', environment().suffixes.sqlServerHostname)]",
        "pvtendpointdnsgroupname": "[concat('pv-endpoint-security-test','/securitygroupname')]"
      }
    },
    "gateway": {
      "name": "gw-cloudsecurity-test",
      "virtualNetworkName": "vnet-cloudsecurity-test",
      "vnetAddressPrefix": "10.1.0.0/16",
      "storageAccountSubnetPrefix": "10.1.0.0/24",
      "databaseSubnetPrefix": "10.1.3.0/24",
      "gatewaySubnetPrefix": "10.1.1.0/24",
      "webAppSubnetPrefix": "10.1.2.0/24",
      "proxySubnetPrefix": "10.1.4.0/24",
      "vpnClientAddressPoolPrefix": "192.168.10.0/24",
      "publicIPName": "pib-cloudsecurity-test",
      "localGatewayName": "lgw-cloudsecurity-test",
      "sourceLocalNetworkAddressSpaceAdressPrefixes": "172.18.10.0/24",
      "sourcePublicIp": "68.10.35.43",
      "connectionName": "cn-cloudsecurity-test",
      "vpnConnectionKey": "lkergwmerwglkm3345elkmergplkerge",
      //For generating the certs, look at https://docs.microsoft.com/en-us/azure/vpn-gateway/vpn-gateway-certificates-point-to-site
      //Password for child and root pfx: 1234
      //Both certificates is included in this repo
      "certData": "[parameters('certData')]"
    }
  },
  "resources": [
    //Storage account
    {
      "type": "Microsoft.Storage/storageAccounts",
      "apiVersion": "2019-06-01",
      "name": "[variables('storageAccount').storageAccountName]",
      "location": "[parameters('location')]",
      "sku": {
        "name": "[variables('storageAccount').storageAccountType]"
      },
      "kind": "StorageV2",
      "properties": {}
    },
    //Database server and database
    {
      "type": "Microsoft.Sql/servers",
      "apiVersion": "2020-02-02-preview",
      "name": "[variables('database').sqlServerName]",
      "location": "[parameters('location')]",
      "kind": "v12.0",
      "tags": {
        "displayName": "[variables('database').sqlServerName]"
      },
      "properties": {
        "administratorLogin": "[variables('database').sqlAdministratorLogin]",
        "administratorLoginPassword": "[variables('database').sqlAdministratorLoginPassword]",
        "version": "12.0"
        //"publicNetworkAccess": "Disabled"
      },
      "resources": [
      ]
    },
    {
      "type": "Microsoft.Sql/servers/databases",
      "apiVersion": "2020-02-02-preview",
      "name": "[concat(variables('database').sqlServerName,'/',variables('database').databaseName)]",
      "location": "[parameters('location')]",
      "sku": {
        "name": "Basic",
        "tier": "Basic",
        "capacity": 5
      },
      "dependsOn": [
        "[resourceId('Microsoft.Sql/servers', variables('database').sqlServerName)]"
      ],
      "tags": {
        "displayName": "[variables('database').databaseName]"
      },
      "properties": {
        "collation": "SQL_Latin1_General_CP1_CI_AS",
        "edition": "Basic",
        "maxSizeBytes": 104857600,
        "requestedServiceObjectiveName": "Basic"
      }
    },
    //Public IP
    {
      "name": "[variables('gateway').publicIPName]",
      "type": "Microsoft.Network/publicIPAddresses",
      "apiVersion": "2020-06-01",
      "location": "[resourceGroup().location]",
      "sku": {
        "name": "Basic"
      },
      "properties": {
        "publicIPAllocationMethod": "Dynamic"
      }
    },
    //Virtual Network
    {
      "apiVersion": "2020-05-01",
      "type": "Microsoft.Network/virtualNetworks",
      "name": "[variables('gateway').virtualNetworkName]",
      "location": "[resourceGroup().location]",
      "properties": {
        "addressSpace": {
          "addressPrefixes": [
            "[variables('gateway').vnetAddressPrefix]"
          ]
        },
        "subnets": [
          {
            "name": "StorageAccountSubnet",
            "properties": {
              "addressPrefix": "[variables('gateway').storageAccountSubnetPrefix]"
            }
          },
          {
            "name": "DatabaseSubnet",
            "properties": {
              "addressPrefix": "[variables('gateway').databaseSubnetPrefix]",
              "privateEndpointNetworkPolicies": "Disabled"
            }
          },
          {
            "name": "GatewaySubnet",
            "properties": {
              "addressPrefix": "[variables('gateway').gatewaySubnetPrefix]",
              "serviceEndpoints": [
                {
                  "service": "Microsoft.Web"
                }
              ]
            }
          },
          {
            "name": "WebappSubnet",
            "properties": {
              "addressPrefix": "[variables('gateway').webAppSubnetPrefix]",
              "serviceEndpoints": [
                {
                  "service": "Microsoft.Web"
                }
              ],
              "delegations": [
                {
                  "name": "delegation",
                  "properties": {
                    "serviceName": "Microsoft.Web/serverFarms"
                  }
                }
              ]
            }
          },
          {
            "name": "ProxySubnet",
            "properties": {
              "addressPrefix": "[variables('gateway').proxySubnetPrefix]",
              "serviceEndpoints": [
                {
                  "service": "Microsoft.Web"
                }
              ],
              "delegations": [
                {
                  "name": "delegation",
                  "properties": {
                    "serviceName": "Microsoft.Web/serverFarms"
                  }
                }
              ]
            }
          }
        ]
      }
    },
    //Virtual Network Gateway
    {
      "apiVersion": "2020-05-01",
      "type": "Microsoft.Network/virtualNetworkGateways",
      "name": "[variables('gateway').name]",
      "location": "[resourceGroup().location]",
      "dependsOn": [
        "[variables('gateway').publicIpName]",
        "[variables('gateway').virtualNetworkName]"
      ],
      "properties": {
        "ipConfigurations": [
          {
            "properties": {
              "privateIPAllocationMethod": "Dynamic",
              "subnet": {
                "id": "[resourceId('Microsoft.Network/virtualNetworks/subnets', variables('gateway').virtualNetworkName, 'GatewaySubnet')]"
              },
              "publicIPAddress": {
                "id": "[resourceId('Microsoft.Network/publicIPAddresses', variables('gateway').publicIpName)]"
              }
            },
            "name": "vnetGatewayConfig"
          }
        ],
        "sku": {
          "name": "VpnGw1",
          "tier": "VpnGw1"
        },
        "gatewayType": "Vpn",
        "vpnType": "RouteBased",
        "enableBgp": false,
        "vpnClientConfiguration": {
          "vpnClientAddressPool": {
            "addressPrefixes": [
              "[variables('gateway').vpnClientAddressPoolPrefix]"
            ]
          },
          "vpnClientRootCertificates": [
            {
              "properties": {
                "publicCertData": "[variables('gateway').certData]"
              },
              "name": "RootPublicCert"
            }
          ]
        }
      }
    },
    //local Network Gateway
    {
      "apiVersion": "2015-06-15",
      "type": "Microsoft.Network/localNetworkGateways",
      "name": "[variables('gateway').localGatewayName]",
      "location": "[resourceGroup().location]",
      "properties": {
        "localNetworkAddressSpace": {
          "addressPrefixes": "[variables('gateway').sourceLocalNetworkAddressSpaceAdressPrefixes]"
        },
        "gatewayIpAddress": "[variables('gateway').sourcePublicIp]" // customers public IP
      }
    },
    //Site-to-site VPN Connection
    {
      "apiVersion": "2020-05-01",
      "name": "[variables('gateway').connectionName]",
      "type": "Microsoft.Network/connections",
      "location": "[resourceGroup().location]",
      "dependsOn": [
        "[concat('Microsoft.Network/virtualNetworkGateways/', variables('gateway').name)]",
        "[concat('Microsoft.Network/localNetworkGateways/', variables('gateway').localGatewayName)]"
      ],
      "properties": {
        "virtualNetworkGateway1": {
          "id": "[resourceId('Microsoft.Network/virtualNetworkGateways', variables('gateway').name)]"
        },
        "localNetworkGateway2": {
          "id": "[resourceId('Microsoft.Network/localNetworkGateways', variables('gateway').localGatewayName)]"
        },
        "connectionType": "IPsec",
        "connectionProtocol": "IKEv2",
        "routingWeight": 10,
        "enableBgp": false,
        "useLocalAzureIpAddress": false,
        "ipsecPolicies": [
          {
            "saLifeTimeSeconds": 28800,
            "saDataSizeKilobytes": 102400000,
            "ipsecEncryption": "GCMAES256",
            "ipsecIntegrity": "GCMAES256",
            "ikeEncryption": "AES256",
            "ikeIntegrity": "SHA1",
            "dhGroup": "DHGroup2",
            "pfsGroup": "None"
          }
        ],
        "expressRouteGatewayBypass": false,
        "dpdTimeoutSeconds": 45,
        "sharedKey": "[variables('gateway').vpnConnectionKey]"
      }
    },
    //Database - Private link
    {
      "type": "Microsoft.Network/privateEndpoints",
      "apiVersion": "2020-06-01",
      "name": "[variables('database').privateLink.privateEndpointName]",
      "location": "[parameters('location')]",
      "dependsOn": [
        "[variables('gateway').virtualNetworkName]",
        "[variables('database').sqlServerName]"
      ],
      "properties": {
        "subnet": {
          "id": "[resourceId('Microsoft.Network/virtualNetworks/subnets', variables('gateway').virtualNetworkName, 'DatabaseSubnet')]"
        },
        "privateLinkServiceConnections": [
          {
            "name": "[variables('database').privateLink.privateEndpointName]",
            "properties": {
              "privateLinkServiceId": "[resourceId('Microsoft.Sql/servers',variables('database').sqlServerName)]",
              "groupIds": [
                "sqlServer"
              ]
            }
          }
        ]
      }
    },
    {
      "type": "Microsoft.Network/privateDnsZones",
      "apiVersion": "2020-01-01",
      "name": "[variables('database').privateLink.privateDnsZoneName]",
      "location": "global",
      "dependsOn": [
        "[variables('gateway').virtualNetworkName]"
      ],
      "properties": ""
    },
    {
      "type": "Microsoft.Network/privateDnsZones/virtualNetworkLinks",
      "apiVersion": "2020-01-01",
      "name": "[concat(variables('database').privateLink.privateDnsZoneName, '/', variables('database').privateLink.privateDnsZoneName, '-link')]",
      "location": "global",
      "dependsOn": [
        "[resourceId('Microsoft.Network/privateDnsZones', variables('database').privateLink.privateDnsZoneName)]",
        "[resourceId('Microsoft.Network/virtualNetworks', variables('gateway').virtualNetworkName)]"
      ],
      "properties": {
        "registrationEnabled": false,
        "virtualNetwork": {
          "id": "[resourceId('Microsoft.Network/virtualNetworks', variables('gateway').virtualNetworkName)]"
        }
      }
    },
    {
      "type": "Microsoft.Network/privateEndpoints/privateDnsZoneGroups",
      "apiVersion": "2020-06-01",
      "name": "[variables('database').privateLink.pvtendpointdnsgroupname]",
      "location": "[parameters('location')]",
      "dependsOn": [
        "[resourceId('Microsoft.Network/privateDnsZones', variables('database').privateLink.privateDnsZoneName)]",
        "[variables('database').privateLink.privateEndpointName]"
      ],
      "properties": {
        "privateDnsZoneConfigs": [
          {
            "name": "config1",
            "properties": {
              "privateDnsZoneId": "[resourceId('Microsoft.Network/privateDnsZones', variables('database').privateLink.privateDnsZoneName)]"
            }
          }
        ]
      }
    },
    //Website
    {
      "apiVersion": "2020-06-01",
      "name": "[parameters('webAppName')]",
      "type": "Microsoft.Web/sites",
      "location": "[parameters('location')]",
      "dependsOn": [
        "[resourceId('Microsoft.Web/serverfarms/', variables('webapp').hostingPlanName)]",
        "[variables('gateway').virtualNetworkName]"
      ],
      "properties": {
        "name": "[parameters('webAppName')]",
        "siteConfig": {
          "appSettings": [

          ],
          "ipSecurityRestrictions": [
            {
              "name": "webappSubnetAllowRule",
              "priority": "1",
              "action": "Allow",
              "vnetSubnetResourceId": "[resourceId('Microsoft.Network/virtualNetworks/subnets', variables('gateway').virtualNetworkName, 'WebappSubnet')]"
            },
            {
              "name": "proxySubnetAllowRule",
              "priority": "2",
              "action": "Allow",
              "vnetSubnetResourceId": "[resourceId('Microsoft.Network/virtualNetworks/subnets', variables('gateway').virtualNetworkName, 'ProxySubnet')]"
            }
          ],
          "metadata": [
            {
              "name": "CURRENT_STACK",
              "value": "[variables('webapp').currentStack]"
            }
          ],
          "netFrameworkVersion": "[variables('webapp').netFrameworkVersion]",
          "alwaysOn": "[variables('webapp').alwaysOn]"
        },
        "serverFarmId": "[resourceId('Microsoft.Web/serverfarms', variables('webapp').hostingPlanName)]"
      },
      "resources": [
        {
          "name": "virtualNetwork",
          "type": "networkConfig",
          "apiVersion": "2019-08-01",
          "dependsOn": [
            "[parameters('webappName')]"
          ],
          "properties": {
            "subnetResourceId": "[resourceId('Microsoft.Network/virtualNetworks/subnets', variables('gateway').virtualNetworkName, 'WebappSubnet')]",
            "swiftSupported": true
          }
        }
      ]
    },
    {
      "apiVersion": "2020-06-01",
      "name": "[variables('webapp').hostingPlanName]",
      "type": "Microsoft.Web/serverfarms",
      "location": "[parameters('location')]",
      "properties": {
        "name": "[variables('webapp').hostingPlanName]",
        "workerSize": "[variables('webapp').workerSize]",
        "workerSizeId": "[variables('webapp').workerSizeId]",
        "numberOfWorkers": "[variables('webapp').numberOfWorkers]"
      },
      "sku": {
        "Tier": "[variables('webapp').sku]",
        "Name": "[variables('webapp').skuCode]"
      }
    },
    //Proxy
    {
      "apiVersion": "2018-02-01",
      "name": "[parameters('proxyWebAppName')]",
      "type": "Microsoft.Web/sites",
      "location": "[parameters('location')]",
      "dependsOn": [
        "[resourceId('Microsoft.Web/serverfarms/', variables('proxy').hostingPlanName)]",
        "[variables('gateway').virtualNetworkName]"
      ],
      "properties": {
        "name": "[parameters('proxyWebAppName')]",
        "siteConfig": {
          "ipSecurityRestrictions": [],
          "appSettings": [

          ],
          "metadata": [
            {
              "name": "CURRENT_STACK",
              "value": "[variables('proxy').currentStack]"
            }
          ],
          "use32BitWorkerProcess": false,
          "netFrameworkVersion": "[variables('proxy').netFrameworkVersion]",
          "alwaysOn": "[variables('proxy').alwaysOn]"
        },
        "serverFarmId": "[resourceId('Microsoft.Web/serverfarms', variables('proxy').hostingPlanName)]"
      },
      "resources": [
        {
          "name": "virtualNetwork",
          "type": "networkConfig",
          "apiVersion": "2019-08-01",
          "dependsOn": [
            "[parameters('proxyWebAppName')]"
          ],
          "properties": {
            "subnetResourceId": "[resourceId('Microsoft.Network/virtualNetworks/subnets', variables('gateway').virtualNetworkName, 'ProxySubnet')]",
            "swiftSupported": true
          }
        }
      ]
    },
    {
      "apiVersion": "2020-06-01",
      "name": "[variables('proxy').hostingPlanName]",
      "type": "Microsoft.Web/serverfarms",
      "location": "[parameters('location')]",
      "properties": {
        "name": "[variables('proxy').hostingPlanName]",
        "workerSize": "[variables('proxy').workerSize]",
        "workerSizeId": "[variables('proxy').workerSizeId]",
        "numberOfWorkers": "[variables('proxy').numberOfWorkers]"
      },
      "sku": {
        "Tier": "[variables('proxy').sku]",
        "Name": "[variables('proxy').skuCode]"
      }
    }
  ]
}